<svg xmlns="http://www.w3.org/2000/svg" width="182" height="44.138" viewBox="0 0 182 44.138">
  <g id="logo_01" data-name="logo 01" transform="translate(0 0.941)">
    <g id="logo" transform="translate(0 -0.941)">
      <path id="Combined_Shape" data-name="Combined Shape" d="M60.347,16V0h.72V16ZM84.039,9.441V3.217h2.447V9.378c0,.954.761,1.548,1.987,1.548s2-.594,2-1.548V3.217h2.447V9.441c0,1.98-1.871,3.416-4.451,3.416S84.039,11.421,84.039,9.441Zm-8.19,2.4c-1.244-.966-1.244-2.081-1.244-3.768V7.929c0-1.686,0-2.8,1.244-3.767a5.653,5.653,0,0,1,6.61.1l.374.286-1.741,1.37-.221-.172a2.574,2.574,0,0,0-1.811-.67,2.285,2.285,0,0,0-1.449.45c-.426.359-.542.708-.542,2.476s.116,2.117.542,2.477a2.285,2.285,0,0,0,1.449.45,2.569,2.569,0,0,0,1.811-.67l.221-.172,1.741,1.37-.374.286a5.653,5.653,0,0,1-6.61.1Zm-8.866.982H64.537V3.254h4.678c2.358,0,4,1.252,4,3.044s-1.647,3.046-4,3.046h-2.23v3.474h0Zm0-5.419h2.133c.387,0,1.655-.079,1.655-1.1,0-.821-.855-1.114-1.655-1.114H66.986Zm46.208,5.383V3.217h4.355a5.112,5.112,0,0,1,3.16.907c1.3,1.01,1.3,2.383,1.291,3.594v.439c0,1.268.01,2.706-1.291,3.719a5.127,5.127,0,0,1-3.16.907Zm2.446-1.932h1.734a2.521,2.521,0,0,0,1.7-.51c.446-.384.479-1.164.479-2.4,0-1.193-.023-1.888-.48-2.28a2.519,2.519,0,0,0-1.7-.509H115.64Zm-11.875,1.931V3.217h7.991V5.149h-5.544V7.032H109.7V8.963h-3.485v1.888h5.544v1.932Zm-9.4,0V10.852h4.008c.946,0,1.509-.354,1.509-.944s-.563-.944-1.509-.944H96.4V7.032h1.974c.73,0,1.509-.248,1.509-.942s-.779-.941-1.509-.941H94.363V3.217h4.169c2.27,0,3.8,1.154,3.8,2.873a2.267,2.267,0,0,1-1.184,1.853,2.2,2.2,0,0,1,1.184,1.964c0,1.774-1.455,2.875-3.8,2.875Zm-64.458-.364H26.721a4.781,4.781,0,0,1-2.776-.613A2.831,2.831,0,0,1,22.952,9.3V6.7a2.831,2.831,0,0,1,.993-2.506,4.781,4.781,0,0,1,2.776-.613H30.7a3.85,3.85,0,0,1,2.813.75,2.711,2.711,0,0,1,.574,2.008v.24H31.563a.859.859,0,0,0-.367-.808A2.044,2.044,0,0,0,30.191,5.6H27.317a1.809,1.809,0,0,0-1.368.36,2.157,2.157,0,0,0-.35,1.494V8.542a2.155,2.155,0,0,0,.35,1.494,1.808,1.808,0,0,0,1.368.361h2.827a2.194,2.194,0,0,0,.968-.163.841.841,0,0,0,.452-.824V9.12H26.508V7.386h7.63V9.831c0,1.248-.316,1.882-1,2.219a7.864,7.864,0,0,1-3.163.37Zm10.987,0H37.684a4.921,4.921,0,0,1-2.572-.46,1.976,1.976,0,0,1-.767-1.852V9.541h2.577c.01.445.106.7.3.841a1.542,1.542,0,0,0,.876.158h3.244a1.948,1.948,0,0,0,.792-.118.652.652,0,0,0,.378-.653c.006-.384-.1-.622-.611-.725a19.914,19.914,0,0,0-3.148-.119c-1.99,0-3.1-.122-3.693-.5s-.707-1.014-.707-2.086a2.8,2.8,0,0,1,.479-1.964c.442-.488,1.3-.793,2.968-.793h3.7c1.523,0,2.348.263,2.79.7A2.451,2.451,0,0,1,44.8,6.121v.241H42.228a.836.836,0,0,0-.2-.683A1.8,1.8,0,0,0,40.9,5.459H37.97a1.414,1.414,0,0,0-.743.167.605.605,0,0,0-.294.544c0,.347.077.574.432.68a8.519,8.519,0,0,0,2.06.128h.962a9.2,9.2,0,0,1,3.851.454c.7.376.924,1.05.924,2.292,0,1.171-.2,1.835-.816,2.216a7.207,7.207,0,0,1-3.422.48Zm8.211,0a4.982,4.982,0,0,1-2.694-.557c5.188-.347,7.05-1.211,7.686-1.936A1.952,1.952,0,0,0,54.47,8.47V7.53a2.057,2.057,0,0,0-.314-1.3,1.645,1.645,0,0,0-1.38-.48H50.518a26.948,26.948,0,0,1,6.2-.887A3.671,3.671,0,0,1,57.117,6.7V9.3a2.827,2.827,0,0,1-.992,2.5,4.781,4.781,0,0,1-2.776.613Zm-34.124-.1V6.994h2.576v5.328Zm-3.465-.014V6.017L7.855,12.308h-1.7L2.522,6.016v.826a7.306,7.306,0,0,0-1.038.949A14.176,14.176,0,0,0,0,9.762V4.536A.111.111,0,0,1,0,4.51c0-.144.04-.817,1.045-.821H3.882L7.01,9.151,10.2,3.689h2.751A.98.98,0,0,1,14.022,4.7v7.606ZM0,12.306V11.029A13.122,13.122,0,0,1,2.522,7.686v4.62Zm45.332-3V6.7a2.825,2.825,0,0,1,.993-2.506A4.786,4.786,0,0,1,49.1,3.581h4.247a4.66,4.66,0,0,1,2.828.653c-5.031.324-6.99,1.128-7.723,1.835a1.754,1.754,0,0,0-.473,1.462v.94a2.2,2.2,0,0,0,.3,1.37,1.491,1.491,0,0,0,1.255.412h2.714a24.639,24.639,0,0,1-6.455.989A3.525,3.525,0,0,1,45.334,9.3Zm-26.2-.222V7.426h3.7V9.079ZM14.978,6.171V3.839h2.576V6.171Z" transform="translate(60 28)" fill="#fff"/>
      <text id="E-Delivery" transform="translate(59 20)" fill="#fff" font-size="22" font-family="WorkSans-SemiBold, Work Sans" font-weight="600"><tspan x="0" y="0">E-Delivery</tspan></text>
      <g id="img_sigle_e-delivery" data-name="img/sigle e-delivery" transform="translate(0 1.273)">
        <path id="Combined_Shape-2" data-name="Combined Shape" d="M21.434,42.865A21.457,21.457,0,0,1,42.865,21.434v7.694A13.735,13.735,0,0,0,29.128,42.865ZM.044,35.111A13.752,13.752,0,0,0,13.782,21.374h7.559A21.457,21.457,0,0,1,42.773.078V7.772A13.753,13.753,0,0,0,29.035,21.51H21.476A21.457,21.457,0,0,1,.044,42.807ZM0,13.737A13.751,13.751,0,0,0,13.737,0h7.7A21.457,21.457,0,0,1,0,21.432Z" transform="translate(0 0)" fill="#fff"/>
      </g>
    </g>
  </g>
</svg>
