<svg xmlns="http://www.w3.org/2000/svg" width="50" height="50" viewBox="0 0 69 69">
  <g id="Group_1080" data-name="Group 1080" transform="translate(-870 -763)">
    <circle id="Ellipse_91" data-name="Ellipse 91" cx="34.5" cy="34.5" r="34.5" transform="translate(870 763)" fill="#e6faf4"/>
    <path id="Icon_material-folder-open" data-name="Icon material-folder-open" d="M32.807,9.312H19.559L16.248,6H6.312a3.307,3.307,0,0,0-3.3,3.312L3,29.183A3.322,3.322,0,0,0,6.312,32.5h26.5a3.322,3.322,0,0,0,3.312-3.312V12.624A3.322,3.322,0,0,0,32.807,9.312Zm0,19.871H6.312V12.624h26.5Z" transform="translate(885 778)" fill="#0acb8f"/>
  </g>
</svg>
